russian/simulation/qsim/russian_core.msim.vcd
$comment
	File created using the following command:
		vcd file russian_core.msim.vcd -direction
$end
$date
	Mon Oct 14 22:58:53 2024
$end
$version
	ModelSim Version 2020.1
$end
$timescale
	1ps
$end

$scope module clock_divider_vlg_vec_tst $end
$var reg 1 ! clk $end
$var reg 1 " rstn $end
$var wire 1 # out $end

$scope module i1 $end
$var wire 1 $ gnd $end
$var wire 1 % vcc $end
$var wire 1 & unknown $end
$var tri1 1 ' devclrn $end
$var tri1 1 ( devpor $end
$var tri1 1 ) devoe $end
$var wire 1 * ~QUARTUS_CREATED_GND~I_combout $end
$var wire 1 + clk~input_o $end
$var wire 1 , clk~inputCLKENA0_outclk $end
$var wire 1 - rstn~input_o $end
$var wire 1 . counter[0]~3_combout $end
$var wire 1 / counter[0]~DUPLICATE_q $end
$var wire 1 0 counter~0_combout $end
$var wire 1 1 counter~2_combout $end
$var wire 1 2 counter[2]~1_combout $end
$var wire 1 3 out~0_combout $end
$var wire 1 4 out~reg0_q $end
$var wire 1 5 counter [3] $end
$var wire 1 6 counter [2] $end
$var wire 1 7 counter [1] $end
$var wire 1 8 counter [0] $end
$upscope $end
$upscope $end
$enddefinitions $end
#0
$dumpvars
0!
0"
0#
0$
1%
x&
1'
1(
1)
0*
0+
0,
0-
1.
0/
00
01
02
03
04
08
07
06
05
$end
#5000
1!
1+
1,
#10000
1"
0!
1-
0+
0,
#15000
1!
1+
1,
1/
18
0.
11
#20000
0!
0+
0,
#25000
1!
1+
1,
17
0/
08
1.
#30000
0!
0+
0,
#35000
1!
1+
1,
1/
18
12
0.
01
#40000
0!
0+
0,
#45000
1!
1+
1,
16
07
0/
08
1.
#50000
0!
0+
0,
#55000
1!
1+
1,
1/
18
0.
11
#60000
0!
0+
0,
#65000
1!
1+
1,
17
0/
08
1.
#70000
0!
0+
0,
#75000
1!
1+
1,
1/
18
02
0.
01
10
#80000
0!
0+
0,
#85000
1!
1+
1,
06
07
15
0/
08
1.
#90000
0!
0+
0,
#95000
1!
1+
1,
1/
18
0.
13
00
#100000
0!
0+
0,
#105000
1!
1+
1,
05
0/
08
14
1#
1.
#110000
0!
0+
0,
#115000
1!
1+
1,
1/
18
0.
11
#120000
0!
0+
0,
#125000
1!
1+
1,
17
0/
08
1.
#130000
0!
0+
0,
#135000
1!
1+
1,
1/
18
12
0.
01
#140000
0!
0+
0,
#145000
1!
1+
1,
16
07
0/
08
1.
#150000
0!
0+
0,
#155000
1!
1+
1,
1/
18
0.
11
#160000
0!
0+
0,
#165000
1!
1+
1,
17
0/
08
1.
#170000
0!
0+
0,
#175000
1!
1+
1,
1/
18
02
0.
01
10
#180000
0!
0+
0,
#185000
1!
1+
1,
06
07
15
0/
08
1.
#190000
0!
0+
0,
#195000
1!
1+
1,
1/
18
0.
03
00
#200000
0!
0+
0,
#205000
1!
1+
1,
05
0/
08
04
0#
1.
#210000
0!
0+
0,
#215000
1!
1+
1,
1/
18
0.
11
#220000
0!
0+
0,
#225000
1!
1+
1,
17
0/
08
1.
#230000
0!
0+
0,
#235000
1!
1+
1,
1/
18
12
0.
01
#240000
0!
0+
0,
#245000
1!
1+
1,
16
07
0/
08
1.
#250000
0!
0+
0,
#255000
1!
1+
1,
1/
18
0.
11
#260000
0!
0+
0,
#265000
1!
1+
1,
17
0/
08
1.
#270000
0!
0+
0,
#275000
1!
1+
1,
1/
18
02
0.
01
10
#280000
0!
0+
0,
#285000
1!
1+
1,
06
07
15
0/
08
1.
#290000
0!
0+
0,
#295000
1!
1+
1,
1/
18
0.
13
00
#300000
0!
0+
0,
#305000
1!
1+
1,
05
0/
08
14
1#
1.
#310000
0!
0+
0,
#315000
1!
1+
1,
1/
18
0.
11
#320000
0!
0+
0,
#325000
1!
1+
1,
17
0/
08
1.
#330000
0!
0+
0,
#335000
1!
1+
1,
1/
18
12
0.
01
#340000
0!
0+
0,
#345000
1!
1+
1,
16
07
0/
08
1.
#350000
0!
0+
0,
#355000
1!
1+
1,
1/
18
0.
11
#360000
0!
0+
0,
#365000
1!
1+
1,
17
0/
08
1.
#370000
0!
0+
0,
#375000
1!
1+
1,
1/
18
02
0.
01
10
#380000
0!
0+
0,
#385000
1!
1+
1,
06
07
15
0/
08
1.
#390000
0!
0+
0,
#395000
1!
1+
1,
1/
18
0.
03
00
#400000
0!
0+
0,
#405000
1!
1+
1,
05
0/
08
04
0#
1.
#410000
0!
0+
0,
#415000
1!
1+
1,
1/
18
0.
11
#420000
0!
0+
0,
#425000
1!
1+
1,
17
0/
08
1.
#430000
0!
0+
0,
#435000
1!
1+
1,
1/
18
12
0.
01
#440000
0!
0+
0,
#445000
1!
1+
1,
16
07
0/
08
1.
#450000
0!
0+
0,
#455000
1!
1+
1,
1/
18
0.
11
#460000
0!
0+
0,
#465000
1!
1+
1,
17
0/
08
1.
#470000
0!
0+
0,
#475000
1!
1+
1,
1/
18
02
0.
01
10
#480000
0!
0+
0,
#485000
1!
1+
1,
06
07
15
0/
08
1.
#490000
0!
0+
0,
#495000
1!
1+
1,
1/
18
0.
13
00
#500000
0!
0+
0,
#505000
1!
1+
1,
05
0/
08
14
1#
1.
#510000
0!
0+
0,
#515000
1!
1+
1,
1/
18
0.
11
#520000
0!
0+
0,
#525000
1!
1+
1,
17
0/
08
1.
#530000
0!
0+
0,
#535000
1!
1+
1,
1/
18
12
0.
01
#540000
0!
0+
0,
#545000
1!
1+
1,
16
07
0/
08
1.
#550000
0!
0+
0,
#555000
1!
1+
1,
1/
18
0.
11
#560000
0!
0+
0,
#565000
1!
1+
1,
17
0/
08
1.
#570000
0!
0+
0,
#575000
1!
1+
1,
1/
18
02
0.
01
10
#580000
0!
0+
0,
#585000
1!
1+
1,
06
07
15
0/
08
1.
#590000
0!
0+
0,
#595000
1!
1+
1,
1/
18
0.
03
00
#600000
0!
0+
0,
#605000
1!
1+
1,
05
0/
08
04
0#
1.
#610000
0!
0+
0,
#615000
1!
1+
1,
1/
18
0.
11
#620000
0!
0+
0,
#625000
1!
1+
1,
17
0/
08
1.
#630000
0!
0+
0,
#635000
1!
1+
1,
1/
18
12
0.
01
#640000
0!
0+
0,
#645000
1!
1+
1,
16
07
0/
08
1.
#650000
0!
0+
0,
#655000
1!
1+
1,
1/
18
0.
11
#660000
0!
0+
0,
#665000
1!
1+
1,
17
0/
08
1.
#670000
0!
0+
0,
#675000
1!
1+
1,
1/
18
02
0.
01
10
#680000
0!
0+
0,
#685000
1!
1+
1,
06
07
15
0/
08
1.
#690000
0!
0+
0,
#695000
1!
1+
1,
1/
18
0.
13
00
#700000
0!
0+
0,
#705000
1!
1+
1,
05
0/
08
14
1#
1.
#710000
0!
0+
0,
#715000
1!
1+
1,
1/
18
0.
11
#720000
0!
0+
0,
#725000
1!
1+
1,
17
0/
08
1.
#730000
0!
0+
0,
#735000
1!
1+
1,
1/
18
12
0.
01
#740000
0!
0+
0,
#745000
1!
1+
1,
16
07
0/
08
1.
#750000
0!
0+
0,
#755000
1!
1+
1,
1/
18
0.
11
#760000
0!
0+
0,
#765000
1!
1+
1,
17
0/
08
1.
#770000
0!
0+
0,
#775000
1!
1+
1,
1/
18
02
0.
01
10
#780000
0!
0+
0,
#785000
1!
1+
1,
06
07
15
0/
08
1.
#790000
0!
0+
0,
#795000
1!
1+
1,
1/
18
0.
03
00
#800000
0!
0+
0,
#805000
1!
1+
1,
05
0/
08
04
0#
1.
#810000
0!
0+
0,
#815000
1!
1+
1,
1/
18
0.
11
#820000
0!
0+
0,
#825000
1!
1+
1,
17
0/
08
1.
#830000
0!
0+
0,
#835000
1!
1+
1,
1/
18
12
0.
01
#840000
0!
0+
0,
#845000
1!
1+
1,
16
07
0/
08
1.
#850000
0!
0+
0,
#855000
1!
1+
1,
1/
18
0.
11
#860000
0!
0+
0,
#865000
1!
1+
1,
17
0/
08
1.
#870000
0!
0+
0,
#875000
1!
1+
1,
1/
18
02
0.
01
10
#880000
0!
0+
0,
#885000
1!
1+
1,
06
07
15
0/
08
1.
#890000
0!
0+
0,
#895000
1!
1+
1,
1/
18
0.
13
00
#900000
0!
0+
0,
#905000
1!
1+
1,
05
0/
08
14
1#
1.
#910000
0!
0+
0,
#915000
1!
1+
1,
1/
18
0.
11
#920000
0!
0+
0,
#925000
1!
1+
1,
17
0/
08
1.
#930000
0!
0+
0,
#935000
1!
1+
1,
1/
18
12
0.
01
#940000
0!
0+
0,
#945000
1!
1+
1,
16
07
0/
08
1.
#950000
0!
0+
0,
#955000
1!
1+
1,
1/
18
0.
11
#960000
0!
0+
0,
#965000
1!
1+
1,
17
0/
08
1.
#970000
0!
0+
0,
#975000
1!
1+
1,
1/
18
02
0.
01
10
#980000
0!
0+
0,
#985000
1!
1+
1,
06
07
15
0/
08
1.
#990000
0!
0+
0,
#995000
1!
1+
1,
1/
18
0.
03
00
