russian/simulation/qsim/russian_core.msim.vcd
$comment
	File created using the following command:
		vcd file russian_core.msim.vcd -direction
$end
$date
	Tue Oct 29 17:12:29 2024
$end
$version
	ModelSim Version 2020.1
$end
$timescale
	1ps
$end

$scope module MemController_vlg_vec_tst $end
$var reg 16 ! address_in [15:0] $end
$var reg 1 " clk $end
$var reg 1 # rw_enable $end
$var wire 1 $ address_out [15] $end
$var wire 1 % address_out [14] $end
$var wire 1 & address_out [13] $end
$var wire 1 ' address_out [12] $end
$var wire 1 ( address_out [11] $end
$var wire 1 ) address_out [10] $end
$var wire 1 * address_out [9] $end
$var wire 1 + address_out [8] $end
$var wire 1 , address_out [7] $end
$var wire 1 - address_out [6] $end
$var wire 1 . address_out [5] $end
$var wire 1 / address_out [4] $end
$var wire 1 0 address_out [3] $end
$var wire 1 1 address_out [2] $end
$var wire 1 2 address_out [1] $end
$var wire 1 3 address_out [0] $end
$var wire 1 4 r_en $end
$var wire 1 5 w_en $end

$scope module i1 $end
$var wire 1 6 gnd $end
$var wire 1 7 vcc $end
$var wire 1 8 unknown $end
$var tri1 1 9 devclrn $end
$var tri1 1 : devpor $end
$var tri1 1 ; devoe $end
$var wire 1 < clk~input_o $end
$var wire 1 = ~QUARTUS_CREATED_GND~I_combout $end
$var wire 1 > rw_enable~input_o $end
$var wire 1 ? address_in[15]~input_o $end
$var wire 1 @ r_en~0_combout $end
$var wire 1 A w_en~0_combout $end
$var wire 1 B address_in[0]~input_o $end
$var wire 1 C address_in[1]~input_o $end
$var wire 1 D address_in[2]~input_o $end
$var wire 1 E address_in[3]~input_o $end
$var wire 1 F address_in[4]~input_o $end
$var wire 1 G address_in[5]~input_o $end
$var wire 1 H address_in[6]~input_o $end
$var wire 1 I address_in[7]~input_o $end
$var wire 1 J address_in[8]~input_o $end
$var wire 1 K address_in[9]~input_o $end
$var wire 1 L address_in[10]~input_o $end
$var wire 1 M address_in[11]~input_o $end
$var wire 1 N address_in[12]~input_o $end
$var wire 1 O address_in[13]~input_o $end
$var wire 1 P address_in[14]~input_o $end
$upscope $end
$upscope $end
$enddefinitions $end
#0
$dumpvars
b1000000000000000 !
0"
0#
03
02
01
00
0/
0.
0-
0,
0+
0*
0)
0(
0'
0&
0%
0$
04
15
06
17
x8
19
1:
1;
0<
0=
0>
1?
0@
0A
0B
0C
0D
0E
0F
0G
0H
0I
0J
0K
0L
0M
0N
0O
0P
$end
#5000
1#
1>
1A
1@
14
05
#10000
0#
0>
0A
0@
04
15
#15000
1#
1>
1A
1@
14
05
#20000
0#
0>
0A
0@
04
15
#25000
1#
1>
1A
1@
14
05
#30000
0#
0>
0A
0@
04
15
#35000
1#
1>
1A
1@
14
05
#40000
0#
0>
0A
0@
04
15
#45000
1#
1>
1A
1@
14
05
#50000
0#
0>
0A
0@
04
15
#55000
1#
1>
1A
1@
14
05
#60000
0#
0>
0A
0@
04
15
#65000
1#
1>
1A
1@
14
05
#70000
0#
0>
0A
0@
04
15
#75000
1#
1>
1A
1@
14
05
#80000
0#
0>
0A
0@
04
15
#85000
1#
1>
1A
1@
14
05
#90000
0#
0>
0A
0@
04
15
#95000
1#
1>
1A
1@
14
05
#100000
0#
0>
0A
0@
04
15
#105000
1#
1>
1A
1@
14
05
#110000
0#
0>
0A
0@
04
15
#115000
1#
1>
1A
1@
14
05
#120000
0#
0>
0A
0@
04
15
#125000
1#
1>
1A
1@
14
05
#130000
b0 !
0#
0?
0>
0@
04
