working/spi/simulation/qsim/spi.msim.vcd
$comment
	File created using the following command:
		vcd file spi.msim.vcd -direction
$end
$date
	Thu Nov 14 20:02:35 2024
$end
$version
	ModelSim Version 2020.1
$end
$timescale
	1ps
$end

$scope module spi_toplevel_vlg_vec_tst $end
$var reg 1 ! i_clk $end
$var reg 1 " i_csn $end
$var reg 1 # i_rstn $end
$var reg 1 $ i_spi_clk $end
$var wire 1 % o_datasent $end
$var wire 1 & o_miso $end

$scope module i1 $end
$var wire 1 ' gnd $end
$var wire 1 ( vcc $end
$var wire 1 ) unknown $end
$var tri1 1 * devclrn $end
$var tri1 1 + devpor $end
$var tri1 1 , devoe $end
$var wire 1 - ~QUARTUS_CREATED_GND~I_combout $end
$var wire 1 . i_spi_clk~input_o $end
$var wire 1 / i_spi_clk~inputCLKENA0_outclk $end
$var wire 1 0 i_clk~input_o $end
$var wire 1 1 i_clk~inputCLKENA0_outclk $end
$var wire 1 2 i_csn~input_o $end
$var wire 1 3 spi|r_RX_Bit_Count[0]~2_combout $end
$var wire 1 4 spi|r_RX_Bit_Count[0]~DUPLICATE_q $end
$var wire 1 5 spi|r_RX_Bit_Count[1]~1_combout $end
$var wire 1 6 spi|r_RX_Bit_Count[1]~DUPLICATE_q $end
$var wire 1 7 spi|r_RX_Bit_Count[2]~0_combout $end
$var wire 1 8 spi|r_RX_Done~0_combout $end
$var wire 1 9 spi|r_RX_Done~q $end
$var wire 1 : i_rstn~input_o $end
$var wire 1 ; spi|r2_RX_Done~q $end
$var wire 1 < spi|r3_RX_Done~feeder_combout $end
$var wire 1 = spi|r3_RX_Done~q $end
$var wire 1 > spi|o_RX_DV~0_combout $end
$var wire 1 ? spi|o_RX_DV~q $end
$var wire 1 @ spi|r_TX_Bit_Count[0]~0_combout $end
$var wire 1 A spi|r_TX_Byte[0]~feeder_combout $end
$var wire 1 B spi|Mux0~0_combout $end
$var wire 1 C spi|r_SPI_MISO_Bit~q $end
$var wire 1 D spi|r_Preload_MISO~feeder_combout $end
$var wire 1 E spi|r_Preload_MISO~q $end
$var wire 1 F spi|w_SPI_MISO_Mux~0_combout $end
$var wire 1 G spi|r_TX_Byte [7] $end
$var wire 1 H spi|r_TX_Byte [6] $end
$var wire 1 I spi|r_TX_Byte [5] $end
$var wire 1 J spi|r_TX_Byte [4] $end
$var wire 1 K spi|r_TX_Byte [3] $end
$var wire 1 L spi|r_TX_Byte [2] $end
$var wire 1 M spi|r_TX_Byte [1] $end
$var wire 1 N spi|r_TX_Byte [0] $end
$var wire 1 O spi|r_TX_Bit_Count [2] $end
$var wire 1 P spi|r_TX_Bit_Count [1] $end
$var wire 1 Q spi|r_TX_Bit_Count [0] $end
$var wire 1 R spi|r_RX_Bit_Count [2] $end
$var wire 1 S spi|r_RX_Bit_Count [1] $end
$var wire 1 T spi|r_RX_Bit_Count [0] $end
$upscope $end
$upscope $end
$enddefinitions $end
#0
$dumpvars
0!
1"
1#
0$
0%
z&
0'
1(
x)
1*
1+
1,
0-
0.
0/
00
01
12
13
04
05
06
07
08
09
1:
0;
0<
0=
0>
0?
1@
1A
0B
0C
1D
0E
0F
0N
zM
zL
zK
zJ
zI
zH
zG
0Q
zP
zO
0T
0S
0R
$end
#5000
1!
10
11
#10000
0!
00
01
#15000
1!
10
11
#20000
0!
00
01
#25000
1!
10
11
#30000
0!
00
01
#35000
1!
10
11
#40000
0!
00
01
#45000
1!
10
11
#50000
0!
00
01
#55000
1!
10
11
#60000
0"
0!
02
00
01
0&
1N
#65000
1!
10
11
#70000
0!
00
01
#75000
1!
10
11
#80000
0!
00
01
#85000
1!
10
11
#90000
0!
00
01
#95000
1!
10
11
#100000
1$
0!
1.
00
01
1/
1E
1Q
14
1T
15
03
1B
0@
#105000
1!
10
11
#110000
0!
00
01
#115000
1!
10
11
#120000
0$
0!
0.
00
01
0/
#125000
1!
10
11
#130000
0!
00
01
#135000
1!
10
11
#140000
1$
0!
1.
00
01
1/
1C
0Q
16
1S
04
0T
13
0B
1@
1F
1&
#145000
1!
10
11
#150000
0!
00
01
#155000
1!
10
11
#160000
0$
0!
0.
00
01
0/
#165000
1!
10
11
#170000
0!
00
01
#175000
1!
10
11
#180000
1$
0!
1.
00
01
1/
0C
1Q
14
1T
05
03
17
1B
0@
0F
0&
#185000
1!
10
11
#190000
0!
00
01
#195000
1!
10
11
#200000
0$
0!
0.
00
01
0/
#205000
1!
10
11
#210000
0!
00
01
#215000
1!
10
11
#220000
1$
0!
1.
00
01
1/
1C
0Q
1R
06
0S
04
0T
13
0B
1@
1F
1&
#225000
1!
10
11
#230000
0!
00
01
#235000
1!
10
11
#240000
0$
0!
0.
00
01
0/
#245000
1!
10
11
#250000
0!
00
01
#255000
1!
10
11
#260000
1$
0!
1.
00
01
1/
0C
1Q
14
1T
15
03
1B
0@
0F
0&
#265000
1!
10
11
#270000
0!
00
01
#275000
1!
10
11
#280000
0$
0!
0.
00
01
0/
#285000
1!
10
11
#290000
0!
00
01
#295000
1!
10
11
#300000
1$
0!
1.
00
01
1/
1C
0Q
16
1S
04
0T
13
0B
1@
1F
1&
#305000
1!
10
11
#310000
0!
00
01
#315000
1!
10
11
#320000
0$
0!
0.
00
01
0/
#325000
1!
10
11
#330000
0!
00
01
#335000
1!
10
11
#340000
1$
0!
1.
00
01
1/
0C
1Q
14
1T
18
05
03
07
1B
0@
0F
0&
#345000
1!
10
11
#350000
0!
00
01
#355000
1!
10
11
#360000
0$
0!
0.
00
01
0/
#365000
1!
10
11
#370000
0!
00
01
#375000
1!
10
11
#380000
1$
0!
1.
00
01
1/
1C
0Q
19
0R
06
0S
04
0T
13
0B
1@
1F
1&
#385000
1!
10
11
1;
1>
1<
#390000
0!
00
01
#395000
1!
10
11
1=
1?
1%
0@
#400000
0$
0!
0.
00
01
0/
#405000
1!
10
11
#410000
0!
00
01
#415000
1!
10
11
#420000
1$
0!
1.
00
01
1/
0C
14
1T
15
03
0F
0&
#425000
1!
10
11
#430000
0!
00
01
#435000
1!
10
11
#440000
0$
0!
0.
00
01
0/
#445000
1!
10
11
#450000
0!
00
01
#455000
1!
10
11
#460000
1$
0!
1.
00
01
1/
16
1S
04
0T
08
13
#465000
1!
10
11
#470000
0!
00
01
#475000
1!
10
11
#480000
0$
0!
0.
00
01
0/
#485000
1!
10
11
#490000
0!
00
01
#495000
1!
10
11
#500000
0!
00
01
#505000
1!
10
11
#510000
0!
00
01
#515000
1!
10
11
#520000
0!
00
01
#525000
1!
10
11
#530000
0!
00
01
#535000
1!
10
11
#540000
0!
00
01
#545000
1!
10
11
#550000
0!
00
01
#555000
1!
10
11
#560000
0!
00
01
#565000
1!
10
11
#570000
0!
00
01
#575000
1!
10
11
#580000
0!
00
01
#585000
1!
10
11
#590000
0!
00
01
#595000
1!
10
11
#600000
0!
00
01
#605000
1!
10
11
#610000
0!
00
01
#615000
1!
10
11
#620000
0!
00
01
#625000
1!
10
11
#630000
0!
00
01
#635000
1!
10
11
#640000
0!
00
01
#645000
1!
10
11
#650000
0!
00
01
#655000
1!
10
11
#660000
0!
00
01
#665000
1!
10
11
#670000
0!
00
01
#675000
1!
10
11
#680000
0!
00
01
#685000
1!
10
11
#690000
0!
00
01
#695000
1!
10
11
#700000
1$
0!
1.
00
01
1/
09
14
1T
05
03
17
#705000
1!
10
11
0;
0<
#710000
0!
00
01
#715000
1!
10
11
0=
#720000
0$
0!
0.
00
01
0/
#725000
1!
10
11
#730000
0!
00
01
#735000
1!
10
11
#740000
1$
0!
1.
00
01
1/
1R
06
0S
04
0T
13
#745000
1!
10
11
#750000
0!
00
01
#755000
1!
10
11
#760000
0$
0!
0.
00
01
0/
#765000
1!
10
11
#770000
0!
00
01
#775000
1!
10
11
#780000
1$
0!
1.
00
01
1/
14
1T
15
03
#785000
1!
10
11
#790000
0!
00
01
#795000
1!
10
11
#800000
0$
0!
0.
00
01
0/
#805000
1!
10
11
#810000
0!
00
01
#815000
1!
10
11
#820000
1$
0!
1.
00
01
1/
16
1S
04
0T
13
#825000
1!
10
11
#830000
0!
00
01
#835000
1!
10
11
#840000
0$
0!
0.
00
01
0/
#845000
1!
10
11
#850000
0!
00
01
#855000
1!
10
11
#860000
1$
0!
1.
00
01
1/
14
1T
18
05
03
07
#865000
1!
10
11
#870000
0!
00
01
#875000
1!
10
11
#880000
0$
0!
0.
00
01
0/
#885000
1!
10
11
#890000
0!
00
01
#895000
1!
10
11
#900000
1$
0!
1.
00
01
1/
19
0R
06
0S
04
0T
13
#905000
1!
10
11
1;
1<
#910000
0!
00
01
#915000
1!
10
11
1=
#920000
0$
0!
0.
00
01
0/
#925000
1!
10
11
#930000
0!
00
01
#935000
1!
10
11
#940000
1$
0!
1.
00
01
1/
14
1T
15
03
#945000
1!
10
11
#950000
0!
00
01
#955000
1!
10
11
#960000
0$
0!
0.
00
01
0/
#965000
1!
10
11
#970000
0!
00
01
#975000
1!
10
11
#980000
1$
0!
1.
00
01
1/
16
1S
04
0T
08
13
#985000
1!
10
11
#990000
0!
00
01
#995000
1!
10
11
