working/ilnes/simulation/qsim/ilnes.msim.vcd
$comment
	File created using the following command:
		vcd file ilnes.msim.vcd -direction
$end
$date
	Sun Oct 13 18:34:48 2024
$end
$version
	ModelSim Version 2020.1
$end
$timescale
	1ps
$end

$scope module uart_tx_vlg_vec_tst $end
$var reg 1 ! clk $end
$var reg 8 " data_transmit_register [7:0] $end
$var reg 1 # rstn $end
$var reg 1 $ shiftout $end
$var wire 1 % current_state [1] $end
$var wire 1 & current_state [0] $end
$var wire 1 ' data_transmitted_signal $end
$var wire 1 ( data_transmitter $end

$scope module i1 $end
$var wire 1 ) gnd $end
$var wire 1 * vcc $end
$var wire 1 + unknown $end
$var tri1 1 , devclrn $end
$var tri1 1 - devpor $end
$var tri1 1 . devoe $end
$var wire 1 / ~QUARTUS_CREATED_GND~I_combout $end
$var wire 1 0 clk~input_o $end
$var wire 1 1 clk~inputCLKENA0_outclk $end
$var wire 1 2 rstn~input_o $end
$var wire 1 3 shiftout~input_o $end
$var wire 1 4 cycle_counter[0]~2_combout $end
$var wire 1 5 cycle_counter[0]~DUPLICATE_q $end
$var wire 1 6 cycle_counter[1]~1_combout $end
$var wire 1 7 cycle_counter[2]~0_combout $end
$var wire 1 8 state~11_combout $end
$var wire 1 9 state.11~q $end
$var wire 1 : Selector0~0_combout $end
$var wire 1 ; state.00~q $end
$var wire 1 < state~10_combout $end
$var wire 1 = state.01~q $end
$var wire 1 > Selector1~0_combout $end
$var wire 1 ? state.10~q $end
$var wire 1 @ shift_signal~q $end
$var wire 1 A data_transmit_register[0]~input_o $end
$var wire 1 B shift_signal~DUPLICATE_q $end
$var wire 1 C data_transmit_register[1]~input_o $end
$var wire 1 D data_transmit_register[2]~input_o $end
$var wire 1 E data_transmit_register[3]~input_o $end
$var wire 1 F data_transmit_register[4]~input_o $end
$var wire 1 G data_transmit_register[5]~input_o $end
$var wire 1 H data_transmit_register[6]~input_o $end
$var wire 1 I data_transmit_register[7]~input_o $end
$var wire 1 J parallel_enable_signal~q $end
$var wire 1 K txshiftregister|shift_register~8_combout $end
$var wire 1 L txshiftregister|shift_register~7_combout $end
$var wire 1 M txshiftregister|shift_register[0]~1_combout $end
$var wire 1 N txshiftregister|shift_register~6_combout $end
$var wire 1 O txshiftregister|shift_register~5_combout $end
$var wire 1 P txshiftregister|shift_register~4_combout $end
$var wire 1 Q txshiftregister|shift_register~3_combout $end
$var wire 1 R txshiftregister|shift_register~2_combout $end
$var wire 1 S txshiftregister|shift_register~0_combout $end
$var wire 1 T txshiftregister|data_transmit~0_combout $end
$var wire 1 U txshiftregister|data_transmit~q $end
$var wire 1 V Selector2~0_combout $end
$var wire 1 W data_transmitted_signal~reg0_q $end
$var wire 1 X current_state~3_combout $end
$var wire 1 Y current_state~4_combout $end
$var wire 1 Z txshiftregister|shift_register [7] $end
$var wire 1 [ txshiftregister|shift_register [6] $end
$var wire 1 \ txshiftregister|shift_register [5] $end
$var wire 1 ] txshiftregister|shift_register [4] $end
$var wire 1 ^ txshiftregister|shift_register [3] $end
$var wire 1 _ txshiftregister|shift_register [2] $end
$var wire 1 ` txshiftregister|shift_register [1] $end
$var wire 1 a txshiftregister|shift_register [0] $end
$var wire 1 b cycle_counter [3] $end
$var wire 1 c cycle_counter [2] $end
$var wire 1 d cycle_counter [1] $end
$var wire 1 e cycle_counter [0] $end
$upscope $end
$upscope $end
$enddefinitions $end
#0
$dumpvars
0!
b1010101 "
0#
0$
0&
0%
0'
0(
0)
1*
x+
1,
1-
1.
0/
00
01
02
03
14
05
06
07
08
09
0:
0;
0<
0=
0>
0?
0@
1A
0B
0C
1D
0E
1F
0G
1H
0I
0J
0K
1L
0M
0N
1O
0P
1Q
0R
1S
0T
0U
0V
0W
1X
1Y
0a
0`
0_
0^
0]
0\
0[
0Z
0e
0d
0c
zb
$end
#5000
1!
10
11
#10000
1#
1$
0!
12
13
00
01
1<
1:
#15000
1!
10
11
1=
1;
0X
0<
1>
1&
#20000
0$
0!
03
00
01
#25000
1!
10
11
1J
1?
0=
0Y
1X
1M
0&
1%
#30000
0!
00
01
#35000
1!
10
11
1a
1_
1]
1[
0J
1B
1@
15
1e
04
16
1T
0Q
0S
1R
1P
0O
1N
0L
#40000
0!
00
01
#45000
1!
10
11
0a
1`
0_
1^
0]
1\
0[
1d
05
0e
1U
1(
14
0N
1O
0P
1Q
0R
1S
0T
#50000
0!
00
01
#55000
1!
10
11
1a
0`
1_
0^
1]
0\
15
1e
0U
0(
17
04
06
0O
1P
0Q
1R
0S
1T
#60000
0!
00
01
#65000
1!
10
11
0a
1`
0_
1^
0]
1c
0d
05
0e
1U
1(
14
0P
1Q
0R
1S
0T
#70000
0!
00
01
#75000
1!
10
11
1a
0`
1_
0^
15
1e
0U
0(
04
16
0Q
1R
0S
1T
#80000
0!
00
01
#85000
1!
10
11
0a
1`
0_
1d
05
0e
1U
1(
14
0R
1S
0T
#90000
0!
00
01
#95000
1!
10
11
1a
0`
15
1e
0U
0(
07
04
0>
18
06
0S
1T
#100000
0!
00
01
#105000
1!
10
11
0a
0?
19
0c
0d
05
0e
1U
1(
0X
14
08
1V
0:
0T
1&
#110000
0!
00
01
#115000
1!
10
11
0B
0@
0;
09
1W
0U
0(
1'
1Y
1X
0M
1Q
1S
1O
1L
0&
0%
#120000
0!
00
01
#125000
1!
10
11
#130000
0!
00
01
#135000
1!
10
11
#140000
0!
00
01
#145000
1!
10
11
#150000
0!
00
01
#155000
1!
10
11
#160000
0!
00
01
#165000
1!
10
11
#170000
0!
00
01
#175000
1!
10
11
#180000
0!
00
01
#185000
1!
10
11
#190000
0!
00
01
#195000
1!
10
11
#200000
0!
00
01
#205000
1!
10
11
#210000
0!
00
01
#215000
1!
10
11
#220000
0!
00
01
#225000
1!
10
11
#230000
0!
00
01
#235000
1!
10
11
#240000
0!
00
01
#245000
1!
10
11
#250000
0!
00
01
#255000
1!
10
11
#260000
0!
00
01
#265000
1!
10
11
#270000
0!
00
01
#275000
1!
10
11
#280000
0!
00
01
#285000
1!
10
11
#290000
0!
00
01
#295000
1!
10
11
#300000
0!
00
01
#305000
1!
10
11
#310000
0!
00
01
#315000
1!
10
11
#320000
0!
00
01
#325000
1!
10
11
#330000
0!
00
01
#335000
1!
10
11
#340000
0!
00
01
#345000
1!
10
11
#350000
0!
00
01
#355000
1!
10
11
#360000
0!
00
01
#365000
1!
10
11
#370000
0!
00
01
#375000
1!
10
11
#380000
0!
00
01
#385000
1!
10
11
#390000
0!
00
01
#395000
1!
10
11
#400000
0!
00
01
#405000
1!
10
11
#410000
0!
00
01
#415000
1!
10
11
#420000
0!
00
01
#425000
1!
10
11
#430000
0!
00
01
#435000
1!
10
11
#440000
0!
00
01
#445000
1!
10
11
#450000
0!
00
01
#455000
1!
10
11
#460000
0!
00
01
#465000
1!
10
11
#470000
0!
00
01
#475000
1!
10
11
#480000
0!
00
01
#485000
1!
10
11
#490000
0!
00
01
#495000
1!
10
11
#500000
0!
00
01
#505000
1!
10
11
#510000
0!
00
01
#515000
1!
10
11
#520000
0!
00
01
#525000
1!
10
11
#530000
0!
00
01
#535000
1!
10
11
#540000
0!
00
01
#545000
1!
10
11
#550000
0!
00
01
#555000
1!
10
11
#560000
0!
00
01
#565000
1!
10
11
#570000
0!
00
01
#575000
1!
10
11
#580000
0!
00
01
#585000
1!
10
11
#590000
0!
00
01
#595000
1!
10
11
#600000
0!
00
01
#605000
1!
10
11
#610000
0!
00
01
#615000
1!
10
11
#620000
0!
00
01
#625000
1!
10
11
#630000
0!
00
01
#635000
1!
10
11
#640000
0!
00
01
#645000
1!
10
11
#650000
0!
00
01
#655000
1!
10
11
#660000
0!
00
01
#665000
1!
10
11
#670000
0!
00
01
#675000
1!
10
11
#680000
0!
00
01
#685000
1!
10
11
#690000
0!
00
01
#695000
1!
10
11
#700000
0!
00
01
#705000
1!
10
11
#710000
0!
00
01
#715000
1!
10
11
#720000
0!
00
01
#725000
1!
10
11
#730000
0!
00
01
#735000
1!
10
11
#740000
0!
00
01
#745000
1!
10
11
#750000
0!
00
01
#755000
1!
10
11
#760000
0!
00
01
#765000
1!
10
11
#770000
0!
00
01
#775000
1!
10
11
#780000
0!
00
01
#785000
1!
10
11
#790000
0!
00
01
#795000
1!
10
11
#800000
0!
00
01
#805000
1!
10
11
#810000
0!
00
01
#815000
1!
10
11
#820000
0!
00
01
#825000
1!
10
11
#830000
0!
00
01
#835000
1!
10
11
#840000
0!
00
01
#845000
1!
10
11
#850000
0!
00
01
#855000
1!
10
11
#860000
0!
00
01
#865000
1!
10
11
#870000
0!
00
01
#875000
1!
10
11
#880000
0!
00
01
#885000
1!
10
11
#890000
0!
00
01
#895000
1!
10
11
#900000
0!
00
01
#905000
1!
10
11
#910000
0!
00
01
#915000
1!
10
11
#920000
0!
00
01
#925000
1!
10
11
#930000
0!
00
01
#935000
1!
10
11
#940000
0!
00
01
#945000
1!
10
11
#950000
0!
00
01
#955000
1!
10
11
#960000
0!
00
01
#965000
1!
10
11
#970000
0!
00
01
#975000
1!
10
11
#980000
0!
00
01
#985000
1!
10
11
#990000
0!
00
01
#995000
1!
10
11
